/home/apprentice/matt-pham-self-work/Labs/BankAccountManager/src/main/java/com/mycompany/bankaccountmanager/App.java
/home/apprentice/matt-pham-self-work/Labs/BankAccountManager/src/main/java/com/mycompany/bankaccountmanager/Account.java
/home/apprentice/matt-pham-self-work/Labs/BankAccountManager/src/main/java/com/mycompany/bankaccountmanager/ATMController.java
/home/apprentice/matt-pham-self-work/Labs/BankAccountManager/src/main/java/com/mycompany/bankaccountmanager/ConsoleIo.java
/home/apprentice/matt-pham-self-work/Labs/BankAccountManager/src/main/java/com/mycompany/bankaccountmanager/CheckingsAccount.java
/home/apprentice/matt-pham-self-work/Labs/BankAccountManager/src/main/java/com/mycompany/bankaccountmanager/SavingsAccount.java
/home/apprentice/matt-pham-self-work/Labs/BankAccountManager/src/main/java/com/mycompany/bankaccountmanager/AccountInterface.java
/home/apprentice/matt-pham-self-work/Labs/BankAccountManager/src/main/java/com/mycompany/bankaccountmanager/Customer.java
